#NAME: Catalogus Professorum Halensis ID
#DESCRIPTION: Mapping from GND ID IDs to Catalogus Professorum Halensis ID IDs
#CREATOR: Magnus Manske
#CREATOR: https://www.wikidata.org/wiki/User:Magnus_Manske
#HOMEPAGE: http://tools.wmflabs.org/wikidata-todo/beacon.php?source=227&prop=2005
#TIMESTAMP: 2020-04-04T17:30:15+00:00
#PREFIX: https://d-nb.info/gnd/

10001349X|Q104134|herrnschmidt-johann-daniel
10003876X|Q102037|knapp-georg-christian
10004638X|Q1596770|bode-heinrich
100092705|Q1504004|coschwitz-georg-daniel
100098657|Q102070|dabelow-carl-christoph-christian-von
10011637X|Q84470415|ebers-johann
100126863|Q1694389|fricke-johann-heinrich
100134971|Q98589|fleischer-johann-laurentius
100135870|Q1693380|floercke-johann-ernst
100173217|Q214923|maass-johann-gebhard-ehrenreich
10019561X|Q55193189|koenig-johann-carl
100220738|Q118562|nettelbladt-daniel
100222838|Q15298648|nicolai-ernst-anton
100325947|Q110167|schuetz-friedrich-karl-julius
100330355|Q106890|schmeitzel-martin
100340520|Q55133188|steck-johann-christoph-wilhelm
100353231|Q17352816|hausen-carl-renatus
100366163|Q1229061|juncker-johann
100408818|Q55193366|simon-johann-georg
100583172|Q1725552|knorre-carl-gottlieb
100697755|Q1462815|wiedeburg-friedrich
100805949|Q65084|ersch-johann-samuel
100868304|Q2086880|heisler-philipp-jakob
10086984X|Q6125261|ludovici-jakob-friedrich
100871658|Q1556065|carrach-johann-tobias
100877389|Q1505820|madihn-georg-samuel
100883311|Q84494845|knorre-ernst-friedrich
100975321|Q65409|heineccius-johann-gottlieb
101009739|Q1504892|vogel-george-johann-ludwig
101119852|Q72872|bahrfeldtmaxvon
101129815|Q20733826|merkeljohannes
101168276|Q1563190|schneidewindwilhelm
1012276988|Q20734168|kastwilhelm
1012303683|Q17591577|scholderrudolf
1012366413|Q1333049|straubhermann
1012373789|Q2639084|wuestalbert
1012416437|Q118326|rexerernst
1012572544|Q19587409|guentherekke
10125816X|Q1608925|preiskerherbert
101272669|Q109449|diehlkarl
101275404|Q20733882|wolzendorffkurt
1012766497|Q2572050|brachmannwilhelm
1012806545|Q105451|kauffmannmax
101283121|Q16509051|hoffmannwalter
1012931544|Q18287459|henselerheinz
1012943313|Q20733802|siedentropirmfried
1013432223|Q84494673|richter-friedrich-adolph
1014536375|Q2574335|nicolaisenwilhelm
1014634059|Q55908626|wohlfahrt-johann-august
1014901731|Q20733777|wolffhellmuth
101559283|Q15810636|herbstwilhelm
101575440|Q95364|fehlinghermann
1016582021|Q84509473|reuter-johann-hartwig
1017205183|Q694383|lehmann-arno
101788622|Q90671|riehmeduard
1018791159|Q1752448|ahrenswalter
101913885|Q1454372|ihmmax
1021136557|Q15438287|walcherkurt
102172005|Q1777466|fuchswalterh
1022088998|Q1582482|schoettlerhans
102329923|Q2562945|woehlbierwerner
102376786|Q87523|thomaejohannes
1023773449|Q19959088|buchdagerhard
1024361691|Q1036878|rojahncarlaugust
1024976661|Q20734145|voelkerwalther
1025453123|Q19960069|kettlerlouisheinz
102647666|Q20733783|grenacherhermann
1026657083|Q20734045|oescheyrudolf
1027094902|Q22582932|sauerwald-franz
102737401|Q102973|schmiedenvictor
1027390870|Q2547443|schulzwalther
1027780229|Q1522639|weidemannjohannes
1027781381|Q1612467|pottrichard
1028578741|Q2546560|trautmannwalter
1030445524|Q897279|lindrathhermann
103084010|Q350526|nietzky-adam
1031836470|Q1319766|moldenhauergerhard
1035071096|Q14566955|muellerberthold
1036931838|Q84509309|peucker-johann-georg-gottlieb
1037374223|Q20733690|boehmergerhard
1038037913|Q84786|asingerfriedrich
1038456835|Q84509626|otto-martin-heinrich
1038509548|Q15438437|krefftsiegfried
104057777|Q16937691|guete-heinrich-ernst
104075481|Q55217254|goldhagen-johann-friedrich-gottlieb
104088060|Q4465540|thunmann-hans-erich
104103930|Q84510800|mueldener-johann-christian
104114010|Q88608|breithaupt-joachim-justus
104136081|Q1694985|lange-johann-joachim
104158999|Q1692911|foerster-johann-christian
104160055|Q75385|callenberg-johann-heinrich
1041610491|Q1232307|nitzschwernervon
10420883X|Q23060895|prange-christian-friedrich
104219440|Q84511077|reinhard-carl-friedrich
10422486X|Q55673741|alberti-heinrich-christian
104254858|Q12360610|steltzer-christian-julius-ludwig
10427431X|Q1378428|schomerushw
104275642|Q1874378|wolffferdinandvon
104314206|Q214603|schmalz-theodor-heinrich-anton
1043615105|Q20734039|freislebenrudolf
1044027789|Q2172514|cobetrudolf
1046043005|Q1506028|sobernheimgeorg
104641282|Q1733244|velhagenkarl
104647183|Q1448350|moerlfranz
10471932X|Q1493691|goehringmargot
104728582|Q126897|begrichjoachim
104771860X|Q1350972|berndterhardt
105026042|Q15433516|buddenbrockhetterdorf
1050470109|Q20734158|grunkewilhelm
1050551788|Q15441045|poenitzkarl
1050552539|Q20733944|heinrothotto
1050553063|Q1349109|siegertferdinand
1050861663|Q1531803|studnitzgotthilftvon
1051210720|Q20734074|liesertheodor
1051927064|Q1749404|hohlrudolf
10526010X|Q1511474|dellinggerhard
1052926185|Q2173260|kaeubler-rudolf
1052971512|Q15438931|schradergerhard
1053439598|Q1079889|ewerbeck-christoph-gottfried
1054243433|Q84475901|jacoby-georg
1054243972|Q5639293|wertheimerernst
1054736723|Q15428323|ruthrudolf
10549755X|Q2645016|genzmeralfred
1055107576|Q20734026|gaertnerrobert
1055137947|Q6964509|fodorandor
1055158960|Q1363297|noackerwin
1055165339|Q2546178|schnellwalter
1055201629|Q2562086|mulerttwerner
1055203389|Q18020241|runge-franz
1055304657|Q1389493|sattelmacherpaul
1055304665|Q15819438|horstershans
1055304932|Q15300579|koeppeleonhard
1055305033|Q16509368|seiseradolf
105530620X|Q20734213|heinwolfgang
1055326421|Q20733902|fischermax
1055356894|Q21517174|junghans-philipp-caspar
1055425594|Q20734132|schuermannwalter
1055437010|Q19284875|seelhans
1055440127|Q20733744|liefmannharry
105549152X|Q20734211|gerickewolfgang
106477358|Q1511275|bassarakgerhard
1065842473|Q2577046|enkewilli
1065849230|Q1507119|stollenwerkwilhelm
1066612625|Q84494495|hoffmann-walther
1069454168|Q1622037|buddewerner
107386240|Q1732845|schmalfuss-karl
10774127X|Q1099907|boschclemens
1079940340|Q20722767|brodereinhold
1082104671|Q1629277|ebschbachhorst
1090084307|Q101040|klinkowskimaximilian
1094729124|Q1731768|isenbeckkarl
111432278|Q2588385|uxkullgyllenbandwoldemargraf
1115145665|Q694201|columbusarno
1120353300|Q20734129|ruttenbeckwalter
1122546912|Q695508|japhaarnold
1134909705|Q1289622|rauterbergeduard
1145839304|Q1484293|emmrichjosefpeter
1146054211|Q20733980|hilpertpaul
1146589492|Q2638672|rudolphalbert
1147387044|Q1323068|brueelludwig
115548459|Q70821|klotz-christian-adolph
115576991|Q99557|cornillcarl
115579117|Q11928216|ruediger-johann-christoph-christian
115599517|Q1620454|schlitte-johann-gerhard
115661484|Q120244|spener-jakob-karl
115671994|Q107970|franklpaul
115698698|Q19258798|wagneralbrecht
115750789|Q55122738|goelicke-andreas-ottomar
115812539|Q84510608|ellenberger-friedrich-wilhelm
115823387|Q15428403|bathe-johann-christof
116000236|Q487387|aallanathon
116005009|Q90226|achelishans
116011300|Q77755|paaschehermann
11601170X|Q761225|daehneaugustferdinand
116034106|Q32456|baehrenswilhelm
116035099|Q90327|kaltenbachrudolph
116036400|Q102873|kampffmeyergeorg
116037334|Q5591864|baethgenfriedrich
116040149|Q98120|baier-johann-wilhelm
116042184|Q58806|baryantonheinrichde
116061375|Q99551|karsten-wenzeslaus-johann-gustav
116067322|Q124557|kattenbuschferdinand
116072474|Q2644852|denkeralfred
116081910|Q88708|pernicealfred
116087978|Q1912398|deutschbeinmax
116089172|Q65613|kautzschemil
116089245|Q103568|kautzschrudolf
116094184|Q96256|keilheinrich
116100060|Q95377|bechtelfriedrich
116100575|Q101046|diehlernst
116107596|Q1503658|beergeorg
116109734|Q78092|behmannheinrich
116120312|Q20734033|benekerudolf
116130547|Q101837|bergerarnolderich
116139048|Q20734205|peyerwilly
116139463|Q20155499|disselhorstrudolf
116140623|Q111045|kernotto
116143169|Q65484|dittenbergerwilhelm
116146516|Q75982|bernhardygottfried
116147423|Q77523|bernsteinfelix
116151420|Q72315|dobschuetzernst
116152893|Q18026569|doebneroskar
116154551|Q1351957|besselhagenerich
116159103|Q20733452|beyeralberkurt
116163011|Q1461504|pfeifferfriedrich
116169893|Q1610949|doerrieshermann
116170018|Q110424|doetschgustav
116182474|Q75804|kirchhoffalfred
116184981|Q15440190|pietruskyfriedrich
116190272|Q1358958|kirstenernst
11619202X|Q85315|pischelrichard
116192402|Q124563|kauffmannfriedrich
116195681|Q100565|kirchnerwilhelm
116195983|Q15428214|kitzingerfriedrich
116200472|Q77619|blassfriedrich
116205857|Q827965|klattberthold
116207191|Q67250|klebsgeorgalbrecht
116208317|Q1767372|blumewilhelmvon
116211148|Q213835|klein-ernst-ferdinand
116211350|Q65308|assmannrichard
116211431|Q2058716|anton-paul
116214074|Q1420084|kleinknechthermann
11621953X|Q86244|drewspaul
116221259|Q85326|boehmercarleduard
116221534|Q2086561|boehmer-philipp-adolph
116223278|Q1412032|boekeenno
116227338|Q87644|droysengustav
116234946|Q5914664|klostermannerich
116238909|Q77801|duemmlerernst
116240210|Q214378|kluegel-georg-simon
116241551|Q122834|ackermanntheodor
116252596|Q1532316|boretiusalfred
116255552|Q105205|bornhaeuserkarl
116257946|Q70523|knoblauchhermann
11626201X|Q20733860|polenskekarl
116271779|Q1578448|ahrbeck-hans
11627185X|Q120240|kochherbert
116272406|Q1383917|aichelotto
116273410|Q89256|kochwaldemar
116278609|Q1442835|praechterkarl
116278838|Q20733594|praetoriusgeorgfriedrichfranz
116278986|Q102898|alberti-michael
116284102|Q20733930|albrechtotto
116287144|Q1556044|alleschjohannesvon
116290641|Q92488|pringsheimernst
116290781|Q20734181|printzwilhelm
116292369|Q18625372|koenig-heinrich-johann-otto
116295430|Q2573705|koeppwilhelm
116296364|Q15448900|alverdesfriedrich
116301643|Q91932|koestlinjulius
116309644|Q1712465|andreejulius
116312300|Q89711|anschuetzaugust
116312963|Q63981|antongabriel
11632158X|Q101922|rachfahlfelix
116322675|Q41569276|eberhard-johann-peter
116335521|Q20734207|raschwolfdietrich
116337559|Q825768|rathkebernhard
116345586|Q100896|arnimhansvon
116354313|Q1458195|hackmann-friedrich-august-von
116359528|Q108651|haeckervalentin
116359641|Q213939|aschaffenburggustav
116361506|Q20733966|asmuspaul
116361964|Q13403716|ratschowmax
116365528|Q1730827|egerkarl
116374675|Q30066467|gallwitz-hans
11637599X|Q100691|kramergustav
116381280|Q67863|kranzwalther
116390174|Q1412370|reessmaximilian
11639112X|Q216626|blasiusernst
116393165|Q2061830|rehmepaul
116395958|Q111915|bramannfritzvon
116399406|Q1693040|krause-johann-christoph
116399511|Q1694443|krausejohannheinrich
116400773|Q1555676|brandesgustav
11641703X|Q91614|eichhornalbert
116426349|Q89713|eiselenjohannfriedrich
116426837|Q1634781|eisenharthugoalexander
116429127|Q15804767|braunsdavid
116429593|Q6067388|reischlemax
116431393|Q105218|calkerfritzvan
116433868|Q1579427|fehrhans
11643838X|Q124503|feinepaul
116449454|Q1518578|gasser-simon-peter
116453923|Q94038|hanlewilhelm
11646156X|Q5710278|elsterludwig
116462329|Q74664|eltzbacherpaul
116464127|Q86482|elzekarl
116474874|Q98141|festerrichard
116476087|Q20734160|haringwilhelm
116479914|Q62674|cellarius-christoph
116482397|Q216709|bremerotto
116483253|Q1352372|harnackerich
116490098|Q20733694|fickergerhard
116493968|Q1579683|gehrighans
116501421|Q107917|geislerwalter
116502959|Q1466577|hartungfritzjura
116504412|Q77551|englercarl
116508116|Q100484|briegertheodor
116518235|Q761247|fingeraugust
116522550|Q71625|geldnerkarl
116527714|Q107786|haupterich
11653012X|Q75023|erdmannbenno
116530464|Q3772639|erdmannhugo
116534230|Q88283|fischeraugust
116538864|Q2418083|erismanntheodor
116543116|Q102575|clemencarl
11654581X|Q15632918|rietschelsiegfried
116549718|Q762505|krohnaugust
116552417|Q15428378|fischer-friedrich-christoph-jonathan
116555076|Q1503808|brodnitzgeorg
116567252|Q214157|krukenbergpeter
116570334|Q6073773|ritschlotto
116572302|Q55122955|gericke-peter
116572566|Q105989|geringhugo
116572639|Q2573088|hehlmannwilhelm
116574801|Q73496|krusefriedrich
116575042|Q2150445|riverichardrobert
116575956|Q75138|robertcarl
116585420|Q120876|fittinghansjohannes
116603186|Q1696977|fleischmannmax
116604948|Q75917|heidenhainrudolf
116605545|Q99109|kuhnoskar
116610573|Q20734175|kunitzwilhelm
116611073|Q98347|kuesterernst
116616660|Q78295|giebelchristiangottfried
116619503|Q18222027|giesauhermann
116619716|Q106150|giesefritz
116622784|Q66202|rosenbergerottoaugust
116623284|Q215830|gilbert-ludwig-wilhelm
116635460|Q99612|girardheinrich
116639350|Q214179|collitzhermann
11664205X|Q20734184|rothsteinwilhelm
116659122|Q77301|heineheinricheduard
116659831|Q112474|maerckermax
116662492|Q106118|heinemannlotharvon
116666781|Q5621129|glogaugustav
116673737|Q1599272|heintzheinrichwilhelm
11668285X|Q19215070|heldmannkarl
116683600|Q20733499|langaugust
116684739|Q15446888|hellebrandwalter
116691247|Q91947|fraenkencarl
116699051|Q101950|hempeljohannes
116712287|Q15782069|ruvillealbertvon
116718706|Q111355|crednerrudolf
116719168|Q1681851|franzkarl
116720239|Q110906|henseotto
116721065|Q2561193|frauendienstwerner
116732466|Q2572825|goeterswilhelm
116735929|Q104369|laqueuerernst
116741910|Q74676|bruecknereduard
116745428|Q2588690|herrewolf
116751789|Q20734194|bruenneckwilhelmvon
116753641|Q2063554|hertwig-paula
116754982|Q215670|hertzberggustav
116759739|Q98381|marchandfelix
116764090|Q20733536|heselhausclemens
116764694|Q67626|goltzfriedrich
116775424|Q103557|goscherichard
116780029|Q49730|heuckenkampferdinand
116781548|Q1874406|freundludwig
116784695|Q993991|freybergbrunovon
116785993|Q1539746|freylinghausen-gottlieb-anastasius
116786825|Q126215|heydemannheinrich
116791756|Q20733644|marschallvonbibersteinfritzfreiherr
116791764|Q95980|friedbergrobert
116800984|Q91172|friedlaenderpaul
116805439|Q102559|saranfranz
116809264|Q214560|graefealfredvon
116812397|Q1288731|hillereduard
116815507|Q20733540|grafeeduard
116815876|Q100616|schmitzcarljohannfriedrich
116818638|Q1675403|schnabelpaul
116825189|Q85351|fritschheinrich
116825324|Q90918|fritschkarlfreiherrvon
116836857|Q1913387|schneidermax
11684034X|Q216698|froriep-ludwig-friedrich
116842148|Q1461048|matzfriedrich
116845457|Q100719|fueckjohann
116854588|Q828000|maurenbrecherberthold
116862416|Q1336443|lehmannemil
116870214|Q90884|meissnerbruno
11687158X|Q20734023|lehmannrichard
116874538|Q1871939|grotelouis
116884339|Q1242992|nasseotto
116884444|Q106006|bartholomaechristian
116884967|Q1511233|leistalexander
116886439|Q1430566|menzerpaul
116887206|Q1693163|gruber-johann-daniel
116888695|Q1358384|gruenfeldernst
116892137|Q92474|meringjoseffreiherrvon
116893974|Q20733433|gruettneradalbert
116895284|Q1693567|gruner-johann-friedrich
116896698|Q1558035|nathusiussimonvon
11689962X|Q88211|hippelarthurvon
116899719|Q95512|hippeleugenvon
116916079|Q76157|guerickeferdinand
116917423|Q65262|hitzigeduard
116926635|Q72306|gundling-nikolaus-hieronymus
116927461|Q1556012|hoelschergustav
116935715|Q1427244|hoffbauer-johann-christoph
116936223|Q15433223|gutzeiternst
116936738|Q761543|gutzmeraugust
11693736X|Q76069|hoffmannerich
116947969|Q119216|zacherjulius
116948035|Q1782391|zacherkonrad
11694921X|Q21587929|zahngustavvon
116951753|Q1047911|becker-johann-friedrich
116959223|Q1359912|neumannernst
11696250X|Q108713|neumannkarljohannes
116964855|Q1585669|hollrungmax
116988258|Q69794|ziehentheodor
116988703|Q61712|meckeljohannfriedrich
116990325|Q91855|horkel-johann
116998377|Q2590441|liepewolfgang
117006742|Q91093|zitelmannernst
117011908|Q65095|mezkarl
117014931|Q1693310|zschackwitz-johann-ehrenfried
117016268|Q1078939|michaelis-christian-benedikt
117016632|Q97083|niesebenedictus
117016683|Q1648579|michaelis-johann-heinrich
117029858|Q111364|lindnertheodor
11703780X|Q1806919|lintzelmartin
117038202|Q1714537|jacobijustusludwig
117040517|Q97073|nollfritz
117044814|Q86401|lippmannedmund
117045608|Q19278006|huebnerrudolf
117052124|Q55021430|buechner-andreas-elias
117053473|Q2541353|mitscherlichwaldemar
117056243|Q101954|hultzscheugen
117064831|Q121422|littenfritz
117065242|Q1904133|jahnmartin
117069906|Q15453156|nuehsmanntheodor
117070513|Q20733894|nuernbergerludwig
117079138|Q2062327|schroederpaul
117081019|Q1506117|moellenbergwalter
117090972|Q73993|waentigheinrich
117091499|Q2575540|waetzoldtwilhelm
117102997|Q1794215|wagnerkurt
117104612|Q20733985|jensenpaul
117106194|Q1747838|schardtalois
117108855|Q15449587|scharffalexander
117113360|Q92492|schedemax
117113980|Q1596632|wagnitz-heinrich-balthasar
117114308|Q55134430|wahl-samuel-friedrich-guenther
117123331|Q102601|olshausenrobert
117137499|Q71052|wangerinalbert
117140791|Q99076|schuetz-christian-gottfried
117154350|Q106103|loeningedgar
117163228|Q20733431|weberhansemil
117171107|Q2575575|weberwilhelm
117179671|Q1081172|muffchristian
117183857|Q5590820|busseludwiglouis
117201227|Q72972|staeckelpaul
117205389|Q20733773|iselehellmutgeorg
117208213|Q1370871|weegefritz
117209147|Q1683465|nachtwehalwin
117213381|Q1460800|loofsfriedrich
117215473|Q1581105|lorenzhans
117218545|Q13626723|scherer-alexander-nikolaus
117218960|Q20733489|wegnerarthur
117222984|Q2284051|galerasiegmarbaronvon
117227919|Q1448887|schieckfranz
117231150|Q90477|taschenbergernstotto
117232998|Q1458713|juncker-friedrich-christian
117233102|Q55840624|juncker-johann-christian-wilhelm
11723379X|Q84471989|wehrn-christian-wilhelm
117234621|Q92329|jungheinrich
117241377|Q20733532|steuernagelcarl
117244724|Q1605941|stiebritz-johann-friedrich
117244732|Q9147202|stiedaalexander
117256285|Q1457020|steinhartkarl
117258474|Q74295|stievehermann
117261165|Q20734083|stockulrich
117267104|Q73545|stohmannfriedrich
11726931X|Q1730385|weinholdkarlaugust
117272736|Q101343|stephanhorst
117274542|Q1360932|sternernstvon
117281042|Q74071|ulewilhelm
117281867|Q1695373|schulze-johann-ludwig
117292389|Q20733952|luedeckeotto
117293598|Q1665915|ungerrudolf
117296481|Q2639015|werminghoffalbert
117299065|Q1429052|luetgertwilhelm
117304395|Q1782371|wernickekonrad
117307122|Q1360548|weitzernst
117309168|Q89179|welckerhermann
117309699|Q18222823|ludwigwilhelm
117311553|Q2087236|strauchphilipp
117313653|Q1592113|uphuesgoswinkarl
117323667|Q1336951|utitzemil
117330612|Q1782750|schlottmannkonstantin
117332216|Q20733738|weyhehans
117335886|Q63378|thielejohannes
11733829X|Q4191709|siebeckgustavhermann
117340421|Q1280924|valentinersiegfried
117343927|Q2639009|wellekalbert
117348120|Q351016|struensee-adam
117352659|Q12249746|thorbeckeheinrich
117354589|Q1528397|wiedenfeldkurt
117355968|Q87109|threlfallwilliam
117362654|Q1613075|wienerhermann
11736701X|Q90651|schwarzhermann
117368202|Q97645|veitjohann
117376167|Q1382975|wuestewald
117377201|Q1694510|tieftrunk-johann-heinrich
11739792X|Q105384|wiltheissernsteduard
117400149|Q20734223|windelbandwolfgang
117400653|Q15446633|windischhans
117413755|Q66607|wissowageorg
117429007|Q2150929|wittsackrichard
117429309|Q86736|smekaladolf
117429880|Q95348|smendrudolf
117431192|Q120439|tschackertpaul
11743163X|Q87511|tschermakvonseyseneggarmin
117433241|Q108231|wollenbergrobert
117440833|Q98716|seebergerich
117444154|Q65337|wolf-friedrich-august
117445126|Q1732194|wolfkarllothar
117448923|Q1462654|voelckerfriedrich
117450588|Q55902344|voss-christian-daniel
117452122|Q160192|vrieshugode
117457701|Q1405899|wohltmannferdinand
117460761|Q825954|solgerbernhard
117462268|Q67692|solmslaubachhermanngrafzu
117471410|Q1300793|voigtehrhard
117471909|Q1502944|voigtheinrich
117474606|Q1439564|sellheimhugo
117478113|Q55127152|voigtel-traugott-gotthilf
117486701|Q1274154|sprengel-matthias-christian
117488941|Q71156|volhardjacob
117489751|Q70792|volkmannalfredwilhelm
117493562|Q91421|vorlaenderdaniel
117496448|Q20733712|schmidguenther
11750274X|Q6325381|schmidternstalbert
117504327|Q105471|hauptmannalfred
117506346|Q1582342|schmidthans
117511196|Q105241|schmidtrimplerhermann
117511617|Q20733560|erdmannernst
117514381|Q1696606|schmidtrichard
117517984|Q106376|schlueterotto
117519103|Q15072010|foerstertheodor
117519618|Q15429770|herffottovon
117519820|Q1412208|heringhermann
117524425|Q1693878|knapp-johann-georg
117527319|Q1459782|holdefleissfriedrich
117527335|Q2060249|holdefleisspaul
11752784X|Q1279282|koehlerhermann
117529451|Q1947974|koeppemoritz
117530735|Q20733991|koethnerpaul
117531332|Q23060279|konopack-christian-gottlieb
117535001|Q97121|baerensprungfriederichwilhelmfelixvon
117536075|Q1733742|frankewalter
117536660|Q92351|gerhardtulrich
117536733|Q1449612|frechfriedrichfritz
117537314|Q1731027|freytagkarl
117537624|Q86698|friedlaenderkarl
117538019|Q2572742|frieswilhelm
117539430|Q1874689|krahmerfriedrichludwig
117539716|Q1720486|kraskepaul
117544760|Q1556182|marekgustav
117549290|Q15451460|nebelthaueberhard
117550078|Q15446766|kromayerernst
117551821|Q1360876|meierernstvon
117553816|Q832215|kuestnerotto
117571113|Q96783|karstengeorge
117573493|Q68107|muellerfriedrichaugust
117574309|Q1357764|westphal-ernst-christian
117580228|Q1314042|wigandalbert
117582352|Q17493254|winternitzhugo
117585882|Q1793923|noackkurt
117588156|Q3618883|oberbeckanton
117588970|Q1269701|berndtgeorg
11758987X|Q15428132|bessermax
117592889|Q101558|oberstmaximilian
117593583|Q1459617|rolofffriedrichheinrich
117594776|Q1690500|rosenbaumjulius
117597449|Q20733585|ziemkeernst
117598887|Q98275|ruhlandwilhelm
117602671|Q68099|zopfwilhelm
11760285X|Q1697259|biermannjohannes
117605670|Q1556145|lastiggustav
117606332|Q1675871|orthalbert
117608858|Q1634856|bodehugo
117614467|Q73246|taschenbergernstludwig
117616672|Q2640004|woltersalbrecht
117618640|Q15990399|bonnethans
117619930|Q825924|schaedelbernhard
117620912|Q103726|schenckadolf
117637416|Q19965400|tubandtcarl
117638196|Q1335911|brunnenmeisteremil
117638609|Q501492|thurandreasvon
117644293|Q20733862|schmidtkarl
117644404|Q20733997|schmidtpaul
117645532|Q6282651|dissehugo
117646938|Q1730381|schuchardtkarlaugust
117647667|Q20734187|schumwilhelm
117648272|Q1693520|cassebohm-johann-friedrich
117651478|Q65191|dornernst
117652032|Q16748909|drehereugen
117653454|Q882352|schwartzehermann
117656186|Q98501|drigalskiwilhelm
11765762X|Q1462353|steinfriedrich
117660140|Q107354|schirmerotto
117661341|Q89683|schmidtadolf
117662690|Q1484223|arndtadolf
117664928|Q1579075|cruegerhans
117669806|Q1286580|leseredmund
117670448|Q1466896|levyhermann
117673986|Q2575274|stoeltznerwilhelm
117674257|Q26458351|carrach-johann-philipp
117679801|Q1913185|pagenstechermax
11768676X|Q1582132|rankehans
117693731|Q1336627|perelsemil
117695017|Q78178|rebeurpaschwitzernstvon
117704849|Q1670382|volkmannjohannes
117707538|Q78085|baerreinhold
117708534|Q73010|brandtheinrich
117709689|Q361328|eckertmoebiusadolf
117710776|Q105645|grellheinrich
117710938|Q98300|groetzsch-herbert
117725706|Q20733704|stammlergerhard
11773019X|Q84907|lavesfritz
117730750|Q19502505|scupinhans
11773876X|Q2577271|laatschwilli
117761451|Q1793648|alverdeskurt
118087517|Q103331|corneliuscarlsebastian
118177907|Q84487708|franzen-adam-wilhelm
118501348|Q61806|alandkurt
118504649|Q90096|aschnerbernhard
118506250|Q2417330|ballauftheodor
118507605|Q76517|baumgarten-alexander-gottlieb
118508024|Q70666|beck-jakob-siegismund
118510312|Q1600048|bethge-heinz
118511807|Q1503738|blohmgeorg
118512617|Q76243|boehmer-justus-henning
118516019|Q105575|brugschtheodor
11851685X|Q63500|buddeus-johann-franz
118518887|Q76420|cantorgeorg
118521853|Q86753|conradjohannes
118532006|Q103562|faschnererich
118534432|Q213570|forster-johann-reinhold
118534688|Q58753|francke-august-hermann
118539191|Q1713101|gierkejuliusvon
118543636|Q62695|gunkelhermann
118547380|Q66880|haymrudolf
118547909|Q90673|heimkarl
118549995|Q67495|herrmannwilhelm
118550012|Q2573213|herschelwilhelm
118553208|Q1514885|holtzmannrobert
118554026|Q115883|hubereugen
118555006|Q58586|husserledmund
118559125|Q84495|kaehlermartin
118569376|Q77495|lange-joachim
118571729|Q74316|leoheinrich
118573519|Q680207|lisztfranzvon
118580051|Q96172|meier-georg-friedrich
118581228|Q19965595|mertneredgar
118581600|Q95197|metzgerwolfgang
118584529|Q1793886|motheskurt
118588362|Q19365294|noackulrich
118595709|Q15444313|ponsoldalbert
118599224|Q215005|reil-johann-christian
118600826|Q542405|riehlalois
118603124|Q104277|rothheinrich
118606034|Q1579761|schachtschnabelhans
118608045|Q76576|schleiermacher-friedrich
118608231|Q95299|schlierheinrich
118609106|Q2546134|schmidtrimplerwalter
118609173|Q2033964|schmiederoskar
118609378|Q62833|schmollergustavvon
118610538|Q5474546|schottcarl
118611046|Q206133|schuchardthugo
11861276X|Q65853|segner-johann-andreas
118616692|Q77651|stammlerrudolf
118617109|Q64406|steffens-henrik
118619837|Q109415|suchierhermann
11862220X|Q57501|thomasius-christian
118622692|Q60104|tillichpaul
118623621|Q1357765|trapp-ernst-christian
118623931|Q2591600|trillhaaswolfgang
118624075|Q121525|trollwilhelm
118624334|Q78251|tschizewskydimitry
118625810|Q76518|vaihingerhans
118627708|Q214667|volhardfranz
118630849|Q76897|wellhausenjulius
118631330|Q110092|wentzelcarl
118633813|Q87073|wintereduard
118634526|Q1337012|woermannemil
118634771|Q76510|wolff-christian
118643576|Q123557|abderhaldenemil
11864632X|Q1503608|baeseckegeorg
118646540|Q61275|aberthermann
118648349|Q84895|altalbrecht
118648446|Q71611|altheimfranz
118649612|Q2172342|anthesrudolf
118652591|Q1357467|barnikolernst
11865361X|Q72106|bauchbruno
118653938|Q70333|baumgarten-siegmund-jakob
118654551|Q16006974|beckerotto
118654918|Q76425|behringemilvon
118655655|Q1357521|benzernst
11865652X|Q90937|bernstein-julius
118660721|Q1555664|boehmergustav
118663194|Q1037079|bilfingercarl
118663534|Q1730498|bischoffkarl
118664573|Q2037852|buehlerottmar
118668056|Q86343|burdachkonrad
11867787X|Q71208|dernburgheinrich
118678590|Q104947|dahmgeorg
118679244|Q91194|dehnguenther
118680110|Q1310917|doernemartin
118681230|Q76553|dunckermaximilian
118681451|Q110481|dzondicarlheinrich
118682261|Q64623|erdmannjohanneduard
118684426|Q1539686|francke-gotthilf-august
118687468|Q942414|eberhard-johann-august
118688499|Q74879|eissfeldotto
118688766|Q2544098|elligerwalter
118689347|Q1793547|gallingkurt
118690957|Q98837|gerstenbergkurt
11869152X|Q91237|fittinghermann
118692046|Q1912552|foerstermax
118692712|Q100485|frankreinhard
118693700|Q1912529|frischeisenkoehlermax
118694758|Q2572809|giesewilhelm
118695738|Q1903924|goehringmartin
118697099|Q2149608|grammelrichard
118701452|Q2720065|hansonhorst
118701851|Q75105|hartungfritz
118703927|Q57070|hertzgustav
118703943|Q107828|herzfeldhans
118706756|Q996353|holtzmannwalther
118708961|Q61768|hassehelmut
118709429|Q106437|heckphilipp
118711415|Q110188|jaenscherich
11871158X|Q91535|jakob-ludwig-heinrich-von
118711849|Q1580468|jantzenhans
118711946|Q1629504|jechthorst
118713019|Q1731814|jordankarl
118714678|Q70136|kahlepaul
118715690|Q84718|krausefedor
118717995|Q70804|goldschmidtadolf
118718835|Q64902|griesbach-johann-jakob
118720988|Q1281716|karogeorg
118721658|Q91648|keller-ott-heinrich
118723243|Q1553592|kischguido
118724681|Q75462|kruegerfelix
118729934|Q1512099|mackenrothgerhard
118732609|Q99286|meierjohn
118733281|Q76894|meyereduard
118733702|Q1409144|michelotto
118733826|Q67020|miegustav
118735179|Q1612179|mulerthermann
118737082|Q92346|moserhansjoachim
118743945|Q1363359|reichenbacherwin
118744283|Q2173622|reinhardtrudolf
118745735|Q108698|roemertheodor
118749285|Q1581918|raupachhans
118750038|Q61040|rouxwilhelm
118752243|Q62829|sprengel-kurt
118752561|Q57566|stahl-georg-ernst
118753622|Q1818751|sternleo
118754688|Q67576|scheringarnold
118756095|Q1696092|stryck-johann-samuel
118756109|Q85289|stryck-samuel
118757016|Q500924|thierfelderandreas
118757199|Q646201|tholuckaugust
118757431|Q76143|thurnwaldrichard
118758616|Q1405448|schneiderferdinandjosef
118758756|Q1712954|schniewindjulius
118760203|Q1353229|schwingeerich
118764470|Q63351|semler-johann-salomo
118765167|Q2591420|siebertwolfgang
118766201|Q1698588|weigeltjohannes
118767372|Q70518|vater-johann-severin
118768301|Q2547492|vetterwalter
118769545|Q20734196|wissmannwilhelm
118769596|Q215735|wittekarl
118770853|Q1794216|waiskurt
118775782|Q68209|jacobi-johann-georg
118776533|Q1257779|justiludwig
118779958|Q1947991|liepmannmoritz
118782819|Q1467484|medicusfritz
118786199|Q73175|niemeyer-august-hermann
118786202|Q112479|niemeyertheodor
11878756X|Q1673154|raapeleo
11878823X|Q1581962|reinerhans
118791923|Q75891|philippsonalfred
118793063|Q67335|pottaugustfriedrich
118797115|Q63222|sieverseduard
118798588|Q91090|steinheinrichfreiherrvon
118798685|Q1713000|stenzeljulius
118805738|Q1280740|voretzschkarl
118805843|Q123791|wackernagelmartin
118806475|Q107279|wechsslereduard
11880653X|Q2040921|weinreichotto
118806742|Q48965|wernickekarl
11880698X|Q1360679|wolfernst
11880846X|Q115000|zimmernheinrich
118822055|Q96917|vosshermann
118825003|Q57332|ebbinghaushermann
118825372|Q76607|hoffman-friedrich
118825534|Q98642|jordanrudolf
118826565|Q1694228|krueger-johann-gottlob
118834193|Q5951380|lielienthalkarlvon
118835246|Q1648024|hamannrichard
118862014|Q62907|brockelmannkarl
11888073X|Q90646|bummernst
118897411|Q1360586|kuhnernstwilhelmadalbert
118906232|Q66600|eberthcarljosef
118931911|Q67149|morgenstern-johann-karl-simon
118933299|Q57497|stumpfcarl
118935313|Q1377294|hermbergpaul
118939823|Q1417981|warneckgustav
118944878|Q98189|boehmer-johann-samuel-friedrich
11894844X|Q18632638|bienertwalter
118956329|Q1598331|mitteisheinrich
118964860|Q20733940|goetzeotto
11897646X|Q1746720|zacharietheodor
118980181|Q20722788|christkarl
11898750X|Q1611885|kuckuckhermann
118989448|Q87828|krausgregor
118989707|Q66206|kuehnjulius
119008017|Q215998|loder-justus-christian
119027577|Q77947|meumannernst
119060159|Q75907|waltherjohannes
119071304|Q100246|laqueurrichard
119091852|Q87424|rambach-johann-jakob
11909892X|Q64707|volkmannrichardvon
119109468|Q102570|endemannfriedrich
119117797|Q1468169|schefferfritz
119127199|Q1797551|kaehlersiegfried
119127202|Q2573834|kaehlerwilhelm
119133431|Q88748|beyschlagwillibald
119136783|Q1497127|dohnaalexandergrafvon
119137453|Q1580006|hahnehans
119145081|Q108389|webertheodor
119148471|Q119143|stangecarl
119179105|Q76624|zieglerkarl
119220857|Q63413|wilckenulrich
119235935|Q100633|koellreutterotto
119261774|Q19960034|kathehansjohannes
11929270X|Q20733526|montfortcamill
119301008|Q214837|gren-friedrich-albert-carl
119331586|Q86902|ulricihermann
119369222|Q86620|burgeffhans
119380269|Q70453|muellerjulius
119384477|Q1319104|vogelkarljulius
119387123|Q60969|burmeisterhermann
119413280|Q103865|noesselt-johann-august
11949177X|Q1697489|fickerjohannes
119512270|Q5746561|froelichgustav
119512718|Q100532|schoenerichard
119522551|Q121468|meuselhermann
11952452X|Q1695823|ludewig-johann-peter-von
119539616|Q18224015|schuereroskar
11954668X|Q75931|thiemepaul
119554380|Q89512|hertzfriedrich
120033232|Q55902353|meinert-friedrich
120076276|Q1225354|thuemmig-ludwig-philipp
120110423|Q1515680|schubart-fikentscher-gertrud
120226561|Q99586|ruemkerkurtvon
120237245|Q1640413|piersigjohannes
1202373666|Q1329327|freudleligius
120238934|Q19210130|fischerhansalbrecht
120320738|Q15437254|gloegegerhard
12043153X|Q1692987|woltaer-johann-christian
120435756|Q60829513|weber-august-gottlieb
120739992|Q20733686|wehrunggeorg
12109460X|Q1358449|hadermannernst
121098664|Q970757|hoffmann-erich
121523012|Q84495359|lamprecht-georg-friedrich
121631273|Q98040|prangegeorg
121948781|Q501164|weber-andreas
122109058|Q84510241|weber-christian
122160665|Q1599262|leuzeoskar
122823575|Q1698428|sperlette-johannes
122945085|Q1038865|hinrichscarl
123165350|Q76698|schulze-johann-heinrich
123414709|Q15438752|philippi-johann-ernst
123490561|Q17417903|doldehermann
123549744|Q84488945|hoffmann-friedrich-jun
123562511|Q1568450|schneider-johann-friedemann
123703816|Q96541|staufferethelbert
123741238|Q1514922|zobelhansjuergen
123888611|Q1746645|vorkastnerwilly
124021085|Q106070|meckel-philipp-friedrich-theodor
124202047|Q84510354|wolf-pancratius
124217060|Q1629507|heynemanntheodor
124518346|Q41755084|berner-gottlieb-ephraim
124627080|Q1037295|frankeleberecht
124762905|Q84471446|goetsche-andreas
124946569|Q84472999|schubart-christoph-andreas
125037643|Q1448462|palmefranz
125794304|Q21496037|langleternstguenther
125878494|Q20734190|siemenswilhelm
125971362|Q2544852|huelsewalter
126002428|Q1459053|fassbenderfriedrich
126392366|Q19959558|gemmingenhornberg
126426880|Q709531|golfarthur
126587140|Q1484118|pauli-carl-friedrich
126787778|Q1468232|schmidtfritz
126852529|Q12362986|rooksgerhard
127544631|Q87076|liebenbergadolfrittervon
127711805|Q20734201|schultzwilli
127997911|Q1466243|fluegelfritz
128187344|Q15451298|kochmannmartin
128345195|Q1713078|waetjenjulius
128472723|Q42909797|bertram-philipp-ernst
128661097|Q382765|reuterfritz
128738294|Q16508916|dietzelkarlh
128752939|Q1283507|stockertfranzguenthervon
128803436|Q1460257|schumannfk
128976640|Q55450332|kemme-johann-christlieb
129070092|Q18333190|brunnemann-jakob
12926721X|Q106086|heimannbetty
129479446|Q2173191|kochrudolf
130026662|Q1561706|schenckguenther
130047384|Q1692860|mencke-johann-caspar-ludwig
130134686|Q100491|wolf-jacob-gabriel
130149845|Q20734178|maierwilhelm
130327190|Q95518|kohlschuetterernst
130457140|Q71615|eggelingjoachimalbrecht
130511323|Q5550685|hoffmanngerhard
130518174|Q125082|abderhaldenrudolf
13054292X|Q1600540|kuertenheinz
130657131|Q1504035|derlitzkigeorg
130921319|Q84489300|freudenberg-fritz
131435701|Q5567308|bauerhans
131584855|Q828088|wieseberthold
132021528|Q2637862|ewaldalbert
132097168|Q1449108|spechtfranz
132738066|Q1762072|gerlachwerner
132775166|Q1740650|grimmpaul
132788403|Q20733836|anerkarl
132881144|Q1539958|nicolai-gotthold-samuel
133302822|Q2645301|kochalfred
133436454|Q1162798|straehler-daniel
133487156|Q816951|clauswitz-benedikt-gottlob
133693244|Q20733922|grososkar
133871126|Q2149461|fikentscherrichard
13451985X|Q20734136|seraukywalter
135543363|Q1459047|falkefriedrich
135894417|Q2058863|behrendpaul
135903637|Q85562|haloungustav
136047750|Q2172312|agricolarudolf
136119417|Q55848415|bergener-johann-carl-erdmann
136213979|Q20733888|hocklothar
13621472X|Q20733938|gessnerotto
136418554|Q2544396|gebhardtwalter
136467989|Q55894256|strumpff-christoph-carl
136545386|Q18222043|goebelfritz
137239335|Q20734227|drigalskiwolfgang
13732782X|Q20180854|wagnerwilhelm
137377460|Q1596656|bass-heinrich
137441185|Q20733589|bechererwin
137473850|Q20733435|clussadolf
137625421|Q15438832|hoesslinheinrichvon
137627831|Q1874517|hollaenderludwig
137666586|Q20734165|hertzwilhelm
137726228|Q15452767|jirkuanton
137726775|Q4202582|joachim-johann-friedrich
137805918|Q1426050|leipoldtjohannes
137808356|Q20733719|lengerkenhannsvon
137851502|Q15436285|loefflerfriedrich
137935757|Q1596313|strellerrudolf
138027277|Q1458620|buechselfriedrich
138219885|Q88724|muellerkarlferdinandfriedrich
138405255|Q1350952|torniererhard
138519285|Q17123835|zimmermann-johann-liborius
138703043|Q1541749|matzenpeterfriedrich
138932085|Q63441|mrugowskyjoachim
139180648|Q1546409|reinholdhermann
139471618|Q96288|gelbadhemar
139585710|Q19960258|langrichard
139640169|Q20733564|haaseernst
139832319|Q17561170|rudorfwilhelm
139899111|Q110885|reitzensteinerich
139974601|Q20734142|weisbachwalter
140035818|Q20733519|luekenbernd
140177833|Q1455473|justikarl
140519688|Q78104|poseheinz
140616861|Q2173072|joergesrudolf
140875824|Q20733713|aubingustav
141086998|Q1581157|loewehans
141311282|Q11735805|heilbronnerkarl
141780061|Q1753589|ursinus-theodor-christoph
141834978|Q20733926|thulinoskar
141878886|Q55678306|beyer-justus-israel
142393754|Q20180506|markrobert
14252512X|Q20734148|wussowwerner
142681415|Q1358877|lesserernst
143038265|Q19517504|roemerpaulheinrich
143148354|Q17561236|heinzelmanngerhard
143695991|Q123079|sellius-gottfried
143854674|Q1506180|tartlergeorg
143954636|Q20733916|dolchmoritz
144000342|Q19287238|herwegjulius
172058872|Q2416868|eckhardttheo
172366631|Q20733810|schwartzjohannchristoph
173212867|Q19959432|fingerlinggustav
174078811|Q20734138|spoettelwalter
17410653X|Q1459730|hilkenbaeumerfriedrich
174339658|Q15439291|wildekurt
189471557|Q761803|frankeaugusthermann
